R语言基础
…
##  blue green   red 
##     1     2     1

table(mycolors)

## mycolors
##  blue green   red 
##     1     2     1

library(readxl)  
data <- read_excel('hw1_data.xlsx')   
data # 是一个数据框

## # A tibble: 72 × 1
##    score
##    <dbl>
##  1    91
##  2    92
##  3    89
##  4    92
##  5    83
##  6    74
##  7    90
##  8    83
##  9    79
## 10    74
## # ℹ 62 more rows
…
## 打开httpd帮助服务器… 好了

e <- mean(x = c(1,2,3))

f <- mean(x <- c(1,2,3))

R语言进阶

有了上面的基础，我们想进一步利用r进行数据分析，以下部分涉及到前两次作业的一部分总结，同时包含了一些比较实用的函数

library(readxl)  #这里注意library每次在文档开头都需要调用，但是install.packages只需要在console运行一次
data <- read_excel('hw1_data.xlsx')   #推荐使用read_excel函数，使用read_xlsx函数的话可能会出现rjava的问题
data # 是一个数据框

## # A tibble: 72 × 1
##    score
##    <dbl>
##  1    91
##  2    92
##  3    89
##  4    92
##  5    83
##  6    74
##  7    90
##  8    83
##  9    79
## 10    74
## # ℹ 62 more rows
…
